Copyright 1986-2019 Xilinx, Inc. All Rights Reserved.
-------------------------------------------------------------------------------------------------------------------------------------------
| Tool Version     : Vivado v.2019.1 (win64) Build 2552052 Fri May 24 14:49:42 MDT 2019
| Date             : Fri Apr 24 18:10:42 2020
| Host             : JFOX-XPS15 running 64-bit major release  (build 9200)
| Command          : report_power -file The_Box_power_routed.rpt -pb The_Box_power_summary_routed.pb -rpx The_Box_power_routed.rpx
| Design           : The_Box
| Device           : xc7a200tsbg484-1
| Design State     : routed
| Grade            : commercial
| Process          : typical
| Characterization : Production
-------------------------------------------------------------------------------------------------------------------------------------------

Power Report

Table of Contents
-----------------
1. Summary
1.1 On-Chip Components
1.2 Power Supply Summary
1.3 Confidence Level
2. Settings
2.1 Environment
2.2 Clock Constraints
3. Detailed Reports
3.1 By Hierarchy

1. Summary
----------

+--------------------------+--------------+
| Total On-Chip Power (W)  | 0.653        |
| Design Power Budget (W)  | Unspecified* |
| Power Budget Margin (W)  | NA           |
| Dynamic (W)              | 0.500        |
| Device Static (W)        | 0.153        |
| Effective TJA (C/W)      | 3.3          |
| Max Ambient (C)          | 82.8         |
| Junction Temperature (C) | 27.2         |
| Confidence Level         | Low          |
| Setting File             | ---          |
| Simulation Activity File | ---          |
| Design Nets Matched      | NA           |
+--------------------------+--------------+
* Specify Design Power Budget using, set_operating_conditions -design_power_budget <value in Watts>


1.1 On-Chip Components
----------------------

+----------------+-----------+----------+-----------+-----------------+
| On-Chip        | Power (W) | Used     | Available | Utilization (%) |
+----------------+-----------+----------+-----------+-----------------+
| Clocks         |     0.007 |       14 |       --- |             --- |
| Slice Logic    |     0.001 |     1331 |       --- |             --- |
|   LUT as Logic |    <0.001 |      680 |    133800 |            0.51 |
|   CARRY4       |    <0.001 |       78 |     33450 |            0.23 |
|   Register     |    <0.001 |      396 |    267600 |            0.15 |
|   Others       |     0.000 |       36 |       --- |             --- |
| Signals        |    <0.001 |      948 |       --- |             --- |
| Block RAM      |     0.001 |      0.5 |       365 |            0.14 |
| MMCM           |     0.350 |        3 |        10 |           30.00 |
| I/O            |     0.139 |       38 |       285 |           13.33 |
| Static Power   |     0.153 |          |           |                 |
| Total          |     0.653 |          |           |                 |
+----------------+-----------+----------+-----------+-----------------+


1.2 Power Supply Summary
------------------------

+-----------+-------------+-----------+-------------+------------+
| Source    | Voltage (V) | Total (A) | Dynamic (A) | Static (A) |
+-----------+-------------+-----------+-------------+------------+
| Vccint    |       1.000 |     0.044 |       0.011 |      0.032 |
| Vccaux    |       1.800 |     0.225 |       0.194 |      0.031 |
| Vcco33    |       3.300 |     0.047 |       0.042 |      0.005 |
| Vcco25    |       2.500 |     0.005 |       0.000 |      0.005 |
| Vcco18    |       1.800 |     0.000 |       0.000 |      0.000 |
| Vcco15    |       1.500 |     0.000 |       0.000 |      0.000 |
| Vcco135   |       1.350 |     0.000 |       0.000 |      0.000 |
| Vcco12    |       1.200 |     0.000 |       0.000 |      0.000 |
| Vccaux_io |       1.800 |     0.000 |       0.000 |      0.000 |
| Vccbram   |       1.000 |     0.001 |       0.000 |      0.001 |
| MGTAVcc   |       1.000 |     0.000 |       0.000 |      0.000 |
| MGTAVtt   |       1.200 |     0.000 |       0.000 |      0.000 |
| Vccadc    |       1.800 |     0.020 |       0.000 |      0.020 |
+-----------+-------------+-----------+-------------+------------+


1.3 Confidence Level
--------------------

+-----------------------------+------------+--------------------------------------------------------+--------------------------------------------------------------------------------------------------------------------+
| User Input Data             | Confidence | Details                                                | Action                                                                                                             |
+-----------------------------+------------+--------------------------------------------------------+--------------------------------------------------------------------------------------------------------------------+
| Design implementation state | High       | Design is routed                                       |                                                                                                                    |
| Clock nodes activity        | Medium     | More than 5% of clocks are missing user specification  | Provide missing clock activity with a constraint file, simulation results or by editing the "By Clock Domain" view |
| I/O nodes activity          | Low        | More than 75% of inputs are missing user specification | Provide missing input activity with simulation results or by editing the "By Resource Type -> I/Os" view           |
| Internal nodes activity     | Medium     | User specified less than 25% of internal nodes         | Provide missing internal nodes activity with simulation results or by editing the "By Resource Type" views         |
| Device models               | High       | Device models are Production                           |                                                                                                                    |
|                             |            |                                                        |                                                                                                                    |
| Overall confidence level    | Low        |                                                        |                                                                                                                    |
+-----------------------------+------------+--------------------------------------------------------+--------------------------------------------------------------------------------------------------------------------+


2. Settings
-----------

2.1 Environment
---------------

+-----------------------+--------------------------+
| Ambient Temp (C)      | 25.0                     |
| ThetaJA (C/W)         | 3.3                      |
| Airflow (LFM)         | 250                      |
| Heat Sink             | medium (Medium Profile)  |
| ThetaSA (C/W)         | 4.6                      |
| Board Selection       | medium (10"x10")         |
| # of Board Layers     | 12to15 (12 to 15 Layers) |
| Board Temperature (C) | 25.0                     |
+-----------------------+--------------------------+


2.2 Clock Constraints
---------------------

+---------------------------------+------------------------------------------------------------------------------------+-----------------+
| Clock                           | Domain                                                                             | Constraint (ns) |
+---------------------------------+------------------------------------------------------------------------------------+-----------------+
| clk_out1_clk_wiz_0              | datapath/Display/VideoControl/mmcm_adv_inst_display_clocks/inst/clk_out1_clk_wiz_0 |            40.0 |
| clk_out1_clk_wiz_1              | datapath/AudioControl/Audio_Codec/audiocodec_master_clock/inst/clk_out1_clk_wiz_1  |            81.4 |
| clk_out1_clk_wiz_2              | nesControllerClock/inst/clk_out1_clk_wiz_2                                         |            62.5 |
| clk_out2_clk_wiz_0              | datapath/Display/VideoControl/mmcm_adv_inst_display_clocks/inst/clk_out2_clk_wiz_0 |             8.0 |
| clk_out2_clk_wiz_1              | datapath/AudioControl/Audio_Codec/audiocodec_master_clock/inst/clk_out2_clk_wiz_1  |            20.0 |
| clk_out2_clk_wiz_2              | nesControllerClock/inst/clk_out2_clk_wiz_2                                         |           100.0 |
| clkfbout_clk_wiz_0              | datapath/Display/VideoControl/mmcm_adv_inst_display_clocks/inst/clkfbout_clk_wiz_0 |            10.0 |
| clkfbout_clk_wiz_1              | datapath/AudioControl/Audio_Codec/audiocodec_master_clock/inst/clkfbout_clk_wiz_1  |            10.0 |
| clkfbout_clk_wiz_2              | nesControllerClock/inst/clkfbout_clk_wiz_2                                         |            10.0 |
| nesControllerClock/inst/clk_in1 | clk_IBUF_BUFG                                                                      |            10.0 |
+---------------------------------+------------------------------------------------------------------------------------+-----------------+


3. Detailed Reports
-------------------

3.1 By Hierarchy
----------------

+----------------------+-----------+
| Name                 | Power (W) |
+----------------------+-----------+
| The_Box              |     0.500 |
|   datapath           |     0.370 |
|     AudioControl     |     0.127 |
|       Audio_Codec    |     0.126 |
|       ShotNoise      |     0.001 |
|     Display          |     0.242 |
|       VideoControl   |     0.242 |
|   nesControllerClock |     0.123 |
|     inst             |     0.123 |
+----------------------+-----------+


