Copyright 1986-2019 Xilinx, Inc. All Rights Reserved.
------------------------------------------------------------------------------------
| Tool Version : Vivado v.2019.1 (win64) Build 2552052 Fri May 24 14:49:42 MDT 2019
| Date         : Fri Apr 24 18:09:22 2020
| Host         : JFOX-XPS15 running 64-bit major release  (build 9200)
| Command      : report_control_sets -verbose -file The_Box_control_sets_placed.rpt
| Design       : The_Box
| Device       : xc7a200t
------------------------------------------------------------------------------------

Control Set Information

Table of Contents
-----------------
1. Summary
2. Histogram
3. Flip-Flop Distribution
4. Detailed Control Set Information

1. Summary
----------

+----------------------------------------------------------+-------+
|                          Status                          | Count |
+----------------------------------------------------------+-------+
| Total control sets                                       |    47 |
|    Minimum number of control sets                        |    47 |
|    Addition due to synthesis replication                 |     0 |
|    Addition due to physical synthesis replication        |     0 |
| Unused register locations in slices containing registers |   196 |
+----------------------------------------------------------+-------+
* Control sets can be merged at opt_design using control_set_merge or merge_equivalent_drivers
** Run report_qor_suggestions for automated merging and remapping suggestions


2. Histogram
------------

+--------------------+-------+
|       Fanout       | Count |
+--------------------+-------+
| Total control sets |    47 |
| >= 0 to < 4        |    11 |
| >= 4 to < 6        |    12 |
| >= 6 to < 8        |     7 |
| >= 8 to < 10       |     1 |
| >= 10 to < 12      |     6 |
| >= 12 to < 14      |     1 |
| >= 14 to < 16      |     1 |
| >= 16              |     8 |
+--------------------+-------+
* Control sets can be remapped at either synth_design or opt_design


3. Flip-Flop Distribution
-------------------------

+--------------+-----------------------+------------------------+-----------------+--------------+
| Clock Enable | Synchronous Set/Reset | Asynchronous Set/Reset | Total Registers | Total Slices |
+--------------+-----------------------+------------------------+-----------------+--------------+
| No           | No                    | No                     |              90 |           43 |
| No           | No                    | Yes                    |               0 |            0 |
| No           | Yes                   | No                     |              92 |           32 |
| Yes          | No                    | No                     |             109 |           34 |
| Yes          | No                    | Yes                    |               0 |            0 |
| Yes          | Yes                   | No                     |             105 |           38 |
+--------------+-----------------------+------------------------+-----------------+--------------+


4. Detailed Control Set Information
-----------------------------------

+---------------------------------------------------------------------------+---------------------------------------------------------------------------------------------+----------------------------------------------------------------------------------+------------------+----------------+
|                                Clock Signal                               |                                        Enable Signal                                        |                                 Set/Reset Signal                                 | Slice Load Count | Bel Load Count |
+---------------------------------------------------------------------------+---------------------------------------------------------------------------------------------+----------------------------------------------------------------------------------+------------------+----------------+
|  datapath/Display/VideoControl/mmcm_adv_inst_display_clocks/inst/clk_out1 |                                                                                             | datapath/Display/VideoControl/inst_dvid/TDMS_encoder_red/encoded0_in[8]          |                1 |              1 |
|  datapath/Display/VideoControl/mmcm_adv_inst_display_clocks/inst/clk_out1 |                                                                                             | datapath/Display/VideoControl/inst_dvid/TDMS_encoder_green/encoded[8]_i_1_n_0    |                1 |              1 |
|  nesControllerClock/inst/clk_out2                                         | controllerRead/FSM_onehot_currentState_reg_n_0_[7]                                          | datapath/AudioControl/Audio_Codec/initialize_audio/SR[0]                         |                1 |              1 |
|  nesControllerClock/inst/clk_out2                                         | controllerRead/FSM_onehot_currentState_reg_n_0_[8]                                          | datapath/AudioControl/Audio_Codec/initialize_audio/SR[0]                         |                1 |              1 |
|  nesControllerClock/inst/clk_out2                                         | controllerRead/FSM_onehot_currentState_reg_n_0_[6]                                          | datapath/AudioControl/Audio_Codec/initialize_audio/SR[0]                         |                1 |              1 |
|  nesControllerClock/inst/clk_out2                                         | controllerRead/p_0_out[7]                                                                   | datapath/AudioControl/Audio_Codec/initialize_audio/SR[0]                         |                1 |              1 |
|  nesControllerClock/inst/clk_out2                                         | controllerRead/FSM_onehot_currentState_reg_n_0_[5]                                          | datapath/AudioControl/Audio_Codec/initialize_audio/SR[0]                         |                1 |              1 |
|  datapath/Display/VideoControl/mmcm_adv_inst_display_clocks/inst/clk_out1 |                                                                                             | datapath/Display/VideoControl/inst_dvid/TDMS_encoder_blue/encoded[8]_i_1__1_n_0  |                1 |              1 |
|  controllerRead/pause1_out                                                |                                                                                             |                                                                                  |                1 |              1 |
|  datapath/Display/VideoControl/mmcm_adv_inst_display_clocks/inst/clk_out1 |                                                                                             | datapath/AudioControl/Audio_Codec/initialize_audio/SR[0]                         |                2 |              2 |
|  controllerRead/readData_reg[4]_0[0]                                      |                                                                                             |                                                                                  |                1 |              2 |
|  datapath/AudioControl/Audio_Codec/audiocodec_master_clock/inst/clk_out2  | reset_n_IBUF                                                                                | datapath/AudioControl/Audio_Codec/initialize_audio/data_i[5]_i_1_n_0             |                1 |              4 |
|  datapath/AudioControl/Audio_Codec/audiocodec_master_clock/inst/clk_out2  | datapath/AudioControl/Audio_Codec/initialize_audio/twi_controller/state_reg[3][0]           | datapath/AudioControl/Audio_Codec/initialize_audio/SR[0]                         |                1 |              4 |
|  datapath/AudioControl/Audio_Codec/audiocodec_master_clock/inst/clk_out2  | datapath/AudioControl/Audio_Codec/initialize_audio/twi_controller/FSM_gray_state[3]_i_1_n_0 |                                                                                  |                2 |              4 |
|  nesControllerClock/inst/clk_out1                                         | lightgunControl/prevRoundData[3]_i_1_n_0                                                    |                                                                                  |                1 |              4 |
|  nesControllerClock/inst/clk_out1                                         | lightgunControl/P1missCount                                                                 | lightgunControl/P1hitCount[3]_i_1_n_0                                            |                1 |              4 |
|  nesControllerClock/inst/clk_out1                                         | lightgunControl/P1hitCount                                                                  | lightgunControl/P1hitCount[3]_i_1_n_0                                            |                1 |              4 |
|  datapath/Display/VideoControl/mmcm_adv_inst_display_clocks/inst/clk_out2 |                                                                                             | datapath/Display/VideoControl/inst_dvid/shift_red[7]_i_1_n_0                     |                1 |              5 |
|  datapath/Display/VideoControl/mmcm_adv_inst_display_clocks/inst/clk_out2 |                                                                                             | datapath/Display/VideoControl/inst_dvid/shift_green[7]_i_1_n_0                   |                1 |              5 |
|  datapath/Display/VideoControl/mmcm_adv_inst_display_clocks/inst/clk_out2 |                                                                                             | datapath/Display/VideoControl/inst_dvid/shift_blue[7]_i_1_n_0                    |                1 |              5 |
|  clk_IBUF_BUFG                                                            |                                                                                             | datapath/AudioControl/Audio_Codec/audio_inout/Cnt_Bclk[4]_i_1_n_0                |                1 |              5 |
|  clk_IBUF_BUFG                                                            | datapath/AudioControl/Audio_Codec/audio_inout/BCLK_Fall_int                                 | datapath/AudioControl/Audio_Codec/initialize_audio/SR[0]                         |                2 |              5 |
|  cubeControl/readData_reg[3][0]                                           |                                                                                             |                                                                                  |                2 |              5 |
|  datapath/AudioControl/Audio_Codec/audiocodec_master_clock/inst/clk_out2  | reset_n_IBUF                                                                                |                                                                                  |                3 |              6 |
|  datapath/Display/VideoControl/mmcm_adv_inst_display_clocks/inst/clk_out2 |                                                                                             | datapath/Display/VideoControl/inst_dvid/shift_red[9]_i_1_n_0                     |                3 |              6 |
|  datapath/AudioControl/Audio_Codec/audiocodec_master_clock/inst/clk_out2  |                                                                                             | datapath/AudioControl/Audio_Codec/initialize_audio/twi_controller/busFreeCnt0_1  |                2 |              7 |
|  datapath/AudioControl/Audio_Codec/audiocodec_master_clock/inst/clk_out2  | datapath/AudioControl/Audio_Codec/initialize_audio/twi_controller/sclCnt[6]_i_2_n_0         | datapath/AudioControl/Audio_Codec/initialize_audio/twi_controller/sclCnt0_0      |                2 |              7 |
|  datapath/AudioControl/Audio_Codec/audiocodec_master_clock/inst/clk_out2  | datapath/AudioControl/Audio_Codec/initialize_audio/twi_controller/E[0]                      | datapath/AudioControl/Audio_Codec/initialize_audio/SR[0]                         |                2 |              7 |
|  nesControllerClock/inst/clk_out1                                         | lightgunControl/FSM_onehot_currentState[6]_i_1_n_0                                          | datapath/AudioControl/Audio_Codec/initialize_audio/SR[0]                         |                5 |              7 |
|  clk_IBUF_BUFG                                                            |                                                                                             |                                                                                  |                3 |              7 |
|  datapath/AudioControl/Audio_Codec/audiocodec_master_clock/inst/clk_out2  | datapath/AudioControl/Audio_Codec/initialize_audio/twi_controller/dataByte[7]_i_1_n_0       |                                                                                  |                2 |              8 |
|  datapath/Display/VideoControl/mmcm_adv_inst_display_clocks/inst/clk_out1 | datapath/Display/VideoControl/Inst_vga/horizontal_counter/processQ0                         | datapath/Display/VideoControl/Inst_vga/horizontal_counter/processQ[9]_i_1__0_n_0 |                5 |             10 |
|  datapath/AudioControl/Audio_Codec/ready_sig                              |                                                                                             | datapath/AudioControl/AddressCount/tempCount                                     |                2 |             10 |
|  nesControllerClock/inst/clk_out2                                         | controllerRead/FSM_onehot_currentState[9]_i_1_n_0                                           | datapath/AudioControl/Audio_Codec/initialize_audio/SR[0]                         |                2 |             10 |
|  datapath/Display/VideoControl/mmcm_adv_inst_display_clocks/inst/clk_out1 | datapath/Display/VideoControl/Inst_vga/vertical_counter/processQ0                           | datapath/Display/VideoControl/Inst_vga/horizontal_counter/SR[0]                  |                4 |             10 |
|  datapath/Display/VideoControl/Inst_vga/vertical_counter/CLK              | cubeControl/E[0]                                                                            |                                                                                  |                3 |             10 |
|  datapath/Display/VideoControl/Inst_vga/vertical_counter/CLK              | cubeControl/FSM_onehot_currentState_reg[1][0]                                               |                                                                                  |                3 |             10 |
|  datapath/Display/VideoControl/mmcm_adv_inst_display_clocks/inst/clk_out1 |                                                                                             | datapath/Display/VideoControl/Inst_vga/blank_sync_vertical/pBlank_reg_1[0]       |                7 |             12 |
|  nesControllerClock/inst/clk_out1                                         |                                                                                             |                                                                                  |               12 |             15 |
|  clk_IBUF_BUFG                                                            | datapath/AudioControl/Audio_Codec/audio_inout/Data_Out_int[31]_i_1_n_0                      |                                                                                  |                3 |             17 |
|  datapath/AudioControl/Audio_Codec/audiocodec_master_clock/inst/clk_out2  |                                                                                             |                                                                                  |               10 |             18 |
|  datapath/AudioControl/Audio_Codec/audiocodec_master_clock/inst/clk_out2  | datapath/AudioControl/Audio_Codec/initialize_audio/initWord[30]_i_1_n_0                     |                                                                                  |                6 |             18 |
|  datapath/Display/VideoControl/mmcm_adv_inst_display_clocks/inst/clk_out2 |                                                                                             |                                                                                  |                5 |             19 |
|  datapath/Display/VideoControl/mmcm_adv_inst_display_clocks/inst/clk_out1 |                                                                                             |                                                                                  |                9 |             23 |
|  nesControllerClock/inst/clk_out1                                         | lightgunControl/count[0]_i_2_n_0                                                            | lightgunControl/count[0]_i_1_n_0                                                 |                7 |             28 |
|  datapath/AudioControl/Audio_Codec/audiocodec_master_clock/inst/clk_out2  |                                                                                             | datapath/AudioControl/Audio_Codec/initialize_audio/delaycnt0                     |                9 |             32 |
|  nesControllerClock/inst/clk_out1                                         | lightgunControl/shotTrackIndex[0]_i_1_n_0                                                   |                                                                                  |               11 |             32 |
+---------------------------------------------------------------------------+---------------------------------------------------------------------------------------------+----------------------------------------------------------------------------------+------------------+----------------+


