Copyright 1986-2019 Xilinx, Inc. All Rights Reserved.
------------------------------------------------------------------------------------------------------------------------------------------------------
| Tool Version : Vivado v.2019.1 (win64) Build 2552052 Fri May 24 14:49:42 MDT 2019
| Date         : Fri Apr 24 18:10:43 2020
| Host         : JFOX-XPS15 running 64-bit major release  (build 9200)
| Command      : report_bus_skew -warn_on_violation -file The_Box_bus_skew_routed.rpt -pb The_Box_bus_skew_routed.pb -rpx The_Box_bus_skew_routed.rpx
| Design       : The_Box
| Device       : 7a200t-sbg484
| Speed File   : -1  PRODUCTION 1.23 2018-06-13
------------------------------------------------------------------------------------------------------------------------------------------------------

Bus Skew Report

No bus skew constraints

