verilog xil_defaultlib --include "../../../ipstatic" \
"../../../../Final Project.srcs/sources_1/ip/clk_wiz_3_1/clk_wiz_3_clk_wiz.v" \
"../../../../Final Project.srcs/sources_1/ip/clk_wiz_3_1/clk_wiz_3.v" \

verilog xil_defaultlib "glbl.v"

nosort
